{
	"algo": [{
		"date": "empty",
		"path": "empty",
		"image": "empty",
		"title": "empty",
		"abstract": "empty"
	}],
	"proj": [{
		"date": "2020-07-XX",
		"path": "[2020-07-XX] casino_poker-2.md",
		"image": "empty",
		"title": "Selenium初探(二) -- GBF Casino Poker (GUI篇)",
		"abstract": "empty"
	}, {
		"date": "2020-07-13 Mon.",
		"path": "[2020-07-13] casino_poker-1.md",
		"image": "casino_poker/2019_03_spa.jpg",
		"title": "Selenium初探(一) -- GBF Casino Poker (crawler篇)",
		"abstract": "An auto poker playing tool in GranBlue Fantasy."
	}, {
		"date": "2019-09-XX",
		"path": "[2019-09-XX] mhw_setbuilder.md",
		"image": "empty",
		"title": "React Native -- MHW SetBuilder",
		"abstract": "An easy set-building tool for MHW."
	}],
	"note": [{
		"date": "2020-07-XX",
		"path": "[2020-XX-XX] twitter_api.md",
		"image": "empty",
		"title": "Tweepy -- Python的Twitter API使用套件",
		"abstract": "empty"
	}, {
		"date": "2020-07-XX",
		"path": "[2020-07-XX] git_commands.md",
		"image": "empty",
		"title": "Git command notes",
		"abstract": "empty"
	}],
	"about": [{
		"date": "empty",
		"path": "empty",
		"image": "empty",
		"title": "empty",
		"abstract": "empty"
	}]
}